{
  "info": {
    "_postman_id": "d0faedcc-d6b3-4244-9214-7ffd31d371bb",
    "name": "Phishyco",
    "description": "API for Phishyco Application",
    "schema": "https://schema.getpostman.com/json/collection/v2.0.0/collection.json"
  },
  "item": [
    {
      "name": "Predict",
      "_postman_id": "f0b89346-ae78-402c-b30b-205dbd85ad17",
      "protocolProfileBehavior": {
        "disableBodyPruning": true
      },
      "request": {
        "method": "GET",
        "header": [],
        "url": {
          "raw": "{{baseUrl}}/predict?url=http://kambing.ui.ac.id",
          "host": [
            "{{baseUrl}}"
          ],
          "path": [
            "predict"
          ],
          "query": [
            {
              "key": "url",
              "value": "http://kambing.ui.ac.id"
            }
          ]
        }
      },
      "response": []
    },
    {
      "name": "Screenshot",
      "_postman_id": "bcbba86b-e174-4d46-b56d-bfe4bb47eaa8",
      "protocolProfileBehavior": {
        "disableBodyPruning": true
      },
      "request": {
        "method": "GET",
        "header": [],
        "url": {
          "raw": "{{baseUrl}}/screenshot?url=https://twitter.com",
          "host": [
            "{{baseUrl}}"
          ],
          "path": [
            "screenshot"
          ],
          "query": [
            {
              "key": "url",
              "value": "https://twitter.com"
            }
          ]
        }
      },
      "response": []
    },
    {
      "name": "Check url",
      "_postman_id": "d3edc23f-6c09-4ad5-a0aa-7d05470bd816",
      "protocolProfileBehavior": {
        "disableBodyPruning": true
      },
      "request": {
        "method": "GET",
        "header": [
          {
            "key": "Content-Type",
            "name": "Content-Type",
            "value": "application/json",
            "type": "text"
          }
        ],
        "url": {
          "raw": "{{baseUrl}}/url-check?url=https://google.com",
          "host": [
            "{{baseUrl}}"
          ],
          "path": [
            "url-check"
          ],
          "query": [
            {
              "key": "url",
              "value": "https://google.com"
            }
          ]
        }
      },
      "response": []
    },
    {
      "name": "Dataset",
      "_postman_id": "05fe7ae6-65ad-4438-8478-c4a5a5eb1024",
      "protocolProfileBehavior": {
        "disableBodyPruning": true
      },
      "request": {
        "method": "GET",
        "header": [],
        "url": {
          "raw": "{{baseUrl}}/dataset?draw=1&start=0&length=10",
          "host": [
            "{{baseUrl}}"
          ],
          "path": [
            "dataset"
          ],
          "query": [
            {
              "key": "draw",
              "value": "1"
            },
            {
              "key": "start",
              "value": "0"
            },
            {
              "key": "length",
              "value": "10"
            }
          ]
        }
      },
      "response": []
    },
    {
      "name": "History list",
      "_postman_id": "ce1b956c-6c93-41eb-9fd4-0e5ca328dd84",
      "protocolProfileBehavior": {
        "disableBodyPruning": true
      },
      "request": {
        "method": "GET",
        "header": [],
        "url": "{{baseUrl}}/history"
      },
      "response": []
    },
    {
      "name": "History details",
      "_postman_id": "971c9e25-a692-4d0b-8541-568a97063094",
      "protocolProfileBehavior": {
        "disableBodyPruning": true
      },
      "request": {
        "method": "GET",
        "header": [],
        "url": "{{baseUrl}}/history/https%3A%2F%2Fgoogle.com"
      },
      "response": []
    }
  ]
}